…
    ## [1] 0

Now we deal with viruses that have more than one family iin host
assignment.

``` r
vh.db%>%
  filter(virus.tax.id %in% multi_fam_id) %>% 
  select(virus.tax.id, virus.name, family)%>%
  distinct() %>%
  arrange(virus.tax.id)
```

    ## # A tibble: 24 x 3
    ##    virus.tax.id virus.name                  family            
    ##           <dbl> <chr>                       <chr>             
    ##  1        10678 Escherichia virus P1        <NA>              
    ##  2        10678 Escherichia virus P1        Enterobacteriaceae
    ##  3        10679 Escherichia virus P2        <NA>              
    ##  4        10679 Escherichia virus P2        Enterobacteriaceae
    ##  5        10693 Enterobacteria phage RB51   <NA>              
    ##  6        10693 Enterobacteria phage RB51   Enterobacteriaceae
    ##  7       373407 Mycobacterium virus Halo    Mycobacteriaceae  
    ##  8       373407 Mycobacterium virus Halo    <NA>              
    ##  9       373415 Mycobacterium phage Wildcat Mycobacteriaceae  
    ## 10       373415 Mycobacterium phage Wildcat <NA>              
    ## # ... with 14 more rows
…
