…
d_meta %>% 
  select(ncbi_taxid, gtdb_f) %>% 
  distinct() %>% 
  group_by(ncbi_taxid) %>% 
  summarise(n_fam=n()) %>% 
  arrange(desc(n_fam))
```

    ## # A tibble: 457 x 2
    ##    ncbi_taxid n_fam
    ##         <dbl> <int>
    ##  1       1409     7
    ##  2       1313     4
    ##  3        192     3
    ##  4        239     3
    ##  5        470     3
    ##  6        232     2
    ##  7        287     2
    ##  8        294     2
    ##  9        306     2
    ## 10        546     2
    ## # ... with 447 more rows
…
``` r
left_ID <- d.vir %>% 
  filter(host.tax.id %in% taxid_absent) %>% 
  filter(phylum == "Firmicutes") %>% 
  filter(!is.na(phylum)) %>% 
  pull(host.tax.id)

d.left <- d.vir %>% 
  filter(host.tax.id %in% left_ID) %>% 
  select(virus.name, host.tax.id ,host.name, family, genus.etc)

d.left
```

    ## # A tibble: 42 x 5
    ##    virus.name                  host.tax.id host.name            family genus.etc
    ##    <chr>                             <dbl> <chr>                <chr>  <chr>    
    ##  1 Streptococcus virus Sfi11          1301 Streptococcus        Strep~ <NA>     
    ##  2 Streptococcus phage MM1            1301 Streptococcus        Strep~ <NA>     
    ##  3 Lactobacillus phage phig1e         1578 Lactobacillus        Lacto~ <NA>     
    ##  4 Streptococcus virus C1            33972 Streptococcus sp. '~ Strep~ Streptoc~
    ##  5 Geobacillus phage GBSV1          340407 Geobacillus sp. 6k51 Bacil~ Geobacil~
    ##  6 Staphylococcus virus phiNM1        1279 Staphylococcus       Staph~ <NA>     
    ##  7 Geobacillus virus E2             129337 Geobacillus          Bacil~ <NA>     
    ##  8 Bacillus virus 1                 391289 Bacillus sp. 6k512   Bacil~ Bacillus 
    ##  9 Lactococcus virus Bibb29           1357 Lactococcus          Strep~ <NA>     
    ## 10 Listeria phage P40                 1637 Listeria             Liste~ <NA>     
    ## # ... with 32 more rows
…
``` r
d.left <-
  tibble(family= unique(d.left$family)) %>% 
  mutate(gtdb_f = str_c("f__", family )) %>% 
  left_join(., fam_spor %>% select(gtdb_f, f_spor),  by = "gtdb_f") %>% 
  left_join(d.left,.,  by = "family")

d.left
```

    ## # A tibble: 42 x 7
    ##    virus.name               host.tax.id host.name family genus.etc gtdb_f f_spor
    ##    <chr>                          <dbl> <chr>     <chr>  <chr>     <chr>  <lgl> 
    ##  1 Streptococcus virus Sfi~        1301 Streptoc~ Strep~ <NA>      f__St~ FALSE 
    ##  2 Streptococcus phage MM1         1301 Streptoc~ Strep~ <NA>      f__St~ FALSE 
    ##  3 Lactobacillus phage phi~        1578 Lactobac~ Lacto~ <NA>      f__La~ FALSE 
    ##  4 Streptococcus virus C1         33972 Streptoc~ Strep~ Streptoc~ f__St~ FALSE 
    ##  5 Geobacillus phage GBSV1       340407 Geobacil~ Bacil~ Geobacil~ f__Ba~ TRUE  
    ##  6 Staphylococcus virus ph~        1279 Staphylo~ Staph~ <NA>      f__St~ FALSE 
    ##  7 Geobacillus virus E2          129337 Geobacil~ Bacil~ <NA>      f__Ba~ TRUE  
    ##  8 Bacillus virus 1              391289 Bacillus~ Bacil~ Bacillus  f__Ba~ TRUE  
    ##  9 Lactococcus virus Bibb29        1357 Lactococ~ Strep~ <NA>      f__St~ FALSE 
    ## 10 Listeria phage P40              1637 Listeria  Liste~ <NA>      f__Li~ FALSE 
    ## # ... with 32 more rows
…
