…
Here is the supplementary table for B. subtilis:

``` r
d.rs <- read_csv(here("spor_gene_list/data","RS_bs_list.csv"))

d.rs
```

    ## # A tibble: 721 x 3
    ##    GI           Regulators Regulators2
    ##    <chr>        <chr>      <chr>      
    ##  1 GI:255767207 sigF       <NA>       
    ##  2 GI:255767204 sigE       <NA>       
    ##  3 GI:16079873  sigF       <NA>       
    ##  4 GI:16080099  sigG       <NA>       
    ##  5 GI:16078079  sigE       <NA>       
    ##  6 GI:255767509 sigF       <NA>       
    ##  7 GI:255767506 sigG       <NA>       
    ##  8 GI:16078005  sigE       <NA>       
    ##  9 GI:255767181 sigE       <NA>       
    ## 10 GI:255767182 sigE       <NA>       
    ## # ... with 711 more rows
…
d.rs <- left_join(d.rs, d.atgc, "GI")

d.rs%>%
  select("GI","Regulators","Regulators2","Gene name / symbol(s)" ,"Locus tag","Product name")%>%
  print()
```

    ## # A tibble: 721 x 6
    ##    GI     Regulators Regulators2 `Gene name / sym~ `Locus tag` `Product name`   
    ##    <chr>  <chr>      <chr>       <chr>             <chr>       <chr>            
    ##  1 GI:25~ sigF       <NA>        yhbA              BSU08910    epoxyqueuosine r~
    ##  2 GI:25~ sigE       <NA>        katA              BSU08820    vegetative catal~
    ##  3 GI:16~ sigF       <NA>        lonB              BSU28210    Lon protease 2   
    ##  4 GI:16~ sigG       <NA>        ytzC              BSU30470    hypothetical pro~
    ##  5 GI:16~ sigE       <NA>        yhgD              BSU10150    TetR family tran~
    ##  6 GI:25~ sigF       <NA>        xerD              BSU23510    tyrosine recombi~
    ##  7 GI:25~ sigG       <NA>        spoVAEB           BSU23402    stage V sporulat~
    ##  8 GI:16~ sigE       <NA>        spoVR             BSU09400    stage V sporulat~
    ##  9 GI:25~ sigE       <NA>        cotJB             BSU06900    spore coat prote~
    ## 10 GI:25~ sigE       <NA>        yesK              BSU06930    hypothetical pro~
    ## # ... with 711 more rows
…
That is a very big difference! and the differences are inconsistent
between BSU\_num comparisons (top Venn) and character-based names
(bottom Venn).  
Which genes are not included by Ramos-Silva?

``` r
# the venn diageam also yields list of the intersection and differences
# attr(venn.bsu, "intersections")$Curated_SubtiWiki

dspore[dspore$gene %in% attr(venn.bsu, "intersections")$Curated_SubtiWiki,]
```

    ## # A tibble: 159 x 8
    ##    `category id` gene   `locus tag` category1  category2 category3  category4   
    ##    <chr>         <chr>  <chr>       <chr>      <chr>     <chr>      <chr>       
    ##  1 SW 4.2.1.1.4  BSU_1~ cotT        Lifestyles Sporulat~ Sporulati~ Spore coat ~
    ##  2 SW 4.2.1.1.5  BSU_1~ ymaG        Lifestyles Sporulat~ Sporulati~ Spore coat ~
    ##  3 SW 4.2.1.1.7  BSU_1~ cotU        Lifestyles Sporulat~ Sporulati~ Spore coat ~
    ##  4 SW 4.2.1.1.8  BSU_0~ ygaK        Lifestyles Sporulat~ Sporulati~ Spore coat ~
    ##  5 SW 4.2.1.1.8  G8J2-~ cmpA        Lifestyles Sporulat~ Sporulati~ Spore coat ~
    ##  6 SW 4.2.1.1.8  BSU_3~ ywqH        Lifestyles Sporulat~ Sporulati~ Spore coat ~
    ##  7 SW 4.2.1.1.8  BSU_1~ cotC        Lifestyles Sporulat~ Sporulati~ Spore coat ~
    ##  8 SW 4.2.1.1.8  BSU_2~ ypeP        Lifestyles Sporulat~ Sporulati~ Spore coat ~
    ##  9 SW 4.2.1.4    BSU_1~ sprB        Lifestyles Sporulat~ Sporulati~ Sporulation~
    ## 10 SW 4.2.1.4    BSU_2~ sigF        Lifestyles Sporulat~ Sporulati~ Sporulation~
    ## # ... with 149 more rows, and 1 more variable: category5 <chr>

A quick look shows these are genes that should be included in the list.
**sigF is missing from that list!!**

Which genes are not included in my list?

``` r
d.rs%>%
  select("Gene name / symbol(s)" ,"Locus tag","Product name","GI","Regulators","Regulators2")%>%
  filter(d.rs$gene %in% attr(venn.bsu, "intersections")$Ramos_Silva)
```

    ## # A tibble: 206 x 6
    ##    `Gene name / sym~ `Locus tag` `Product name`     GI    Regulators Regulators2
    ##    <chr>             <chr>       <chr>              <chr> <chr>      <chr>      
    ##  1 yhbA              BSU08910    epoxyqueuosine re~ GI:2~ sigF       <NA>       
    ##  2 katA              BSU08820    vegetative catala~ GI:2~ sigE       <NA>       
    ##  3 yhgD              BSU10150    TetR family trans~ GI:1~ sigE       <NA>       
    ##  4 xerD              BSU23510    tyrosine recombin~ GI:2~ sigF       <NA>       
    ##  5 birA              BSU22440    bifunctional prot~ GI:1~ sigE       <NA>       
    ##  6 alkA              BSU01800    DNA-3-methyladeni~ GI:1~ sigE       <NA>       
    ##  7 dnaA              BSU00010    chromosomal repli~ GI:1~ spo0A      <NA>       
    ##  8 yojA              BSU19520    permease YojA      GI:1~ sigK       <NA>       
    ##  9 resA              BSU23150    thiol-disulfide o~ GI:2~ unknown    <NA>       
    ## 10 ybaS              BSU01590    hypothetical prot~ GI:2~ sigE       <NA>       
    ## # ... with 196 more rows

A quick look suggests these are not sporulation genes.

Lets try and naively reconstruct Ramos-Silva’s list from the SubtiWiki
regulation data. I have downloaded the regulation data from the
Regulation item at <http://subtiwiki.uni-goettingen.de/v3/exports>.

``` r
d.regulon <- read_csv(here("spor_gene_list/data","regulations.csv"))
d.regulon
```

    ## # A tibble: 5,938 x 6
    ##    regulon     regulator `regulator locus t~ mode              gene  `locus tag`
    ##    <chr>       <chr>     <chr>               <chr>             <chr> <chr>      
    ##  1 PerR Regul~ PerR      BSU_08730           activation        srfAA BSU_03480  
    ##  2 PerR Regul~ PerR      BSU_08730           activation        srfAD BSU_03520  
    ##  3 PerR Regul~ PerR      BSU_08730           repression        hemD  BSU_28140  
    ##  4 PerR Regul~ PerR      BSU_08730           repression        hemL  BSU_28120  
    ##  5 PerR Regul~ PerR      BSU_08730           activation        srfAC BSU_03510  
    ##  6 PerR Regul~ PerR      BSU_08730           repression        spx   BSU_11500  
    ##  7 PerR Regul~ PerR      BSU_08730           repression        hemA  BSU_28170  
    ##  8 PerR Regul~ PerR      BSU_08730           repression        hemB  BSU_28130  
    ##  9 PerR Regul~ PerR      BSU_08730           repression        mrgA  BSU_32990  
    ## 10 PerR Regul~ PerR      BSU_08730           transcription re~ nrdI  BSU_17370  
    ## # ... with 5,928 more rows
…
#   sigK=d.regulon$`locus tag`[grep("SigK", d.regulon$regulon)],
#   spo0A=d.regulon$`locus tag`[grep("Spo0A", d.regulon$regulon)]))%>%
d.reg.spore <- 
d.regulon%>%
  filter(grepl("SigF", d.regulon$regulon)|
          grepl("SigG", d.regulon$regulon)|
          grepl("SigE", d.regulon$regulon)|
          grepl("SigK", d.regulon$regulon)|
          grepl("Spo0A", d.regulon$regulon)
         )%>%
  filter(!duplicated(`locus tag`))
d.reg.spore
```

    ## # A tibble: 663 x 6
    ##    regulon      regulator `regulator locus tag` mode         gene  `locus tag`
    ##    <chr>        <chr>     <chr>                 <chr>        <chr> <chr>      
    ##  1 SigK Regulon SigK      BSU_25760             sigma factor cotF  BSU_40530  
    ##  2 SigK Regulon SigK      BSU_25760             sigma factor ymaG  BSU_17310  
    ##  3 SigK Regulon SigK      BSU_25760             sigma factor yrzN  BSU_26559  
    ##  4 SigK Regulon SigK      BSU_25760             sigma factor ykzR  BSU_13799  
    ##  5 SigK Regulon SigK      BSU_25760             sigma factor yotF  BSU_19900  
    ##  6 SigK Regulon SigK      BSU_25760             sigma factor ylbE  BSU_14980  
    ##  7 SigK Regulon SigK      BSU_25760             sigma factor cgeC  BSU_19770  
    ##  8 SigK Regulon SigK      BSU_25760             sigma factor yisZ  BSU_10910  
    ##  9 SigK Regulon SigK      BSU_25760             sigma factor yodH  BSU_19600  
    ## 10 SigK Regulon SigK      BSU_25760             sigma factor gerPE BSU_10680  
    ## # ... with 653 more rows
…
Which genes are specific to my curated list? (Venn shows 120)

``` r
dspore[dspore$gene %in% attr(venn_3way, "intersections")$Curated_SubtiWiki,]
```

    ## # A tibble: 120 x 8
    ##    `category id` gene   `locus tag` category1  category2 category3 category4    
    ##    <chr>         <chr>  <chr>       <chr>      <chr>     <chr>     <chr>        
    ##  1 SW 4.2.1.1.8  BSU_0~ ygaK        Lifestyles Sporulat~ Sporulat~ Spore coat p~
    ##  2 SW 4.2.1.1.8  BSU_3~ ywqH        Lifestyles Sporulat~ Sporulat~ Spore coat p~
    ##  3 SW 4.2.1.1.8  BSU_2~ ypeP        Lifestyles Sporulat~ Sporulat~ Spore coat p~
    ##  4 SW 4.2.1.5    BSU_3~ yuzL        Lifestyles Sporulat~ Sporulat~ Newly identi~
    ##  5 SW 4.2.1.5    BSU_2~ yppC        Lifestyles Sporulat~ Sporulat~ Newly identi~
    ##  6 SW 4.2.1.5    BSU_1~ ymfD        Lifestyles Sporulat~ Sporulat~ Newly identi~
    ##  7 SW 4.2.1.5    BSU_2~ ypeQ        Lifestyles Sporulat~ Sporulat~ Newly identi~
    ##  8 SW 4.2.1.5    BSU_4~ yycQ        Lifestyles Sporulat~ Sporulat~ Newly identi~
    ##  9 SW 4.2.1.5    BSU_1~ yjzK        Lifestyles Sporulat~ Sporulat~ Newly identi~
    ## 10 SW 4.2.1.5    BSU_3~ yugF        Lifestyles Sporulat~ Sporulat~ Newly identi~
    ## # ... with 110 more rows, and 1 more variable: category5 <chr>
…
Which genes in the regulon based list are not on my list or Ramos-Silva?
(Venn shows 180)

``` r
d.atgc%>%
  select("Gene name / symbol(s)","Product name","Locus tag" )%>%
  filter( gsub("BSU", "BSU_",d.atgc$`Locus tag`) %in% 
            attr(venn_3way, "intersections")$Regulons)%>%
  filter(!duplicated(`Locus tag`))%>%
  arrange(`Locus tag`)
```

    ## # A tibble: 175 x 3
    ##    `Gene name / symbol(~ `Product name`                              `Locus tag`
    ##    <chr>                 <chr>                                       <chr>      
    ##  1 yaaE                  glutamine amidotransferase subunit PdxT     BSU00120   
    ##  2 xpaC                  5-bromo 4-chloroindolyl phosphate hydrolys~ BSU00250   
    ##  3 yaaN                  hypothetical protein                        BSU00260   
    ##  4 yaaO                  hypothetical protein                        BSU00270   
    ##  5 metS                  methionine--tRNA ligase                     BSU00380   
    ##  6 yabD                  deoxyribonuclease YabD                      BSU00390   
    ##  7 yabM                  hypothetical protein                        BSU00570   
    ##  8 yabN                  hypothetical protein                        BSU00580   
    ##  9 yabO                  hypothetical protein                        BSU00590   
    ## 10 tilS                  tRNA(ile)-lysidine synthase                 BSU00670   
    ## # ... with 165 more rows
…
Now, without spo0A, which genes in the regulon based list are not on my
list r that of Ramos-Silva? (Venn shows 72)

``` r
# d.reg.spore[d.reg.spore$`locus tag` %in% attr(venn_3way, "intersections")$Regulons,]
d.atgc%>%
  select("Gene name / symbol(s)","Product name","Locus tag" )%>%
  filter( gsub("BSU", "BSU_",d.atgc$`Locus tag`) %in% 
            attr(venn_3way, "intersections")$Regulons)%>%
  filter(!duplicated(`Locus tag`))%>%
  arrange(`Locus tag`)
```

    ## # A tibble: 68 x 3
    ##    `Gene name / symbol(~ `Product name`                              `Locus tag`
    ##    <chr>                 <chr>                                       <chr>      
    ##  1 xpaC                  5-bromo 4-chloroindolyl phosphate hydrolys~ BSU00250   
    ##  2 yaaN                  hypothetical protein                        BSU00260   
    ##  3 yaaO                  hypothetical protein                        BSU00270   
    ##  4 yabM                  hypothetical protein                        BSU00570   
    ##  5 yabN                  hypothetical protein                        BSU00580   
    ##  6 yabO                  hypothetical protein                        BSU00590   
    ##  7 tilS                  tRNA(ile)-lysidine synthase                 BSU00670   
    ##  8 hprT                  hypoxanthine-guanine phosphoribosyltransfe~ BSU00680   
    ##  9 ftsH                  ATP-dependent zinc metalloprotease FtsH     BSU00690   
    ## 10 ctsR                  transcriptional regulator CtsR              BSU00830   
    ## # ... with 58 more rows
…
``` r
# Putting together the sporulation gene list
# venn(list(Curated_SubtiWiki=dspore$gene, Ramos_Silva=d.rs$gene)))
# setdiff(d.rs$gene, dspore$gene)
d%>%
  filter(gene %in% setdiff(d.rs$gene, dspore$gene))%>%
  filter(!duplicated(gene))%>%
    arrange(gene)
```

    ## # A tibble: 206 x 8
    ##    `category id` gene   `locus tag` category1  category2  category3  category4  
    ##    <chr>         <chr>  <chr>       <chr>      <chr>      <chr>      <chr>      
    ##  1 SW 3.1.1      BSU_0~ dnaA        Informati~ Genetics   DNA repli~ <NA>       
    ##  2 SW 3.1.1      BSU_0~ dnaN        Informati~ Genetics   DNA repli~ <NA>       
    ##  3 SW 2.6.2.12   BSU_0~ pdxS        Metabolism Additiona~ Biosynthe~ Biosynthes~
    ##  4 SW 3.3.1.2    BSU_0~ ksgA        Informati~ Protein s~ Translati~ rRNA modif~
    ##  5 SW 2.4.2.3    BSU_0~ ispE        Metabolism Lipid met~ Biosynthe~ Biosynthes~
    ##  6 SW 2.5.2.1    BSU_0~ purR        Metabolism Nucleotid~ Biosynthe~ Biosynthes~
    ##  7 SW 2.3.1.12   BSU_0~ yabJ        Metabolism Amino aci~ Biosynthe~ Biosynthes~
    ##  8 SW 3.1.5      BSU_0~ mfd         Informati~ Genetics   DNA repai~ <NA>       
    ##  9 SW 1.2.4.12   BSU_0~ ybaS        Cellular ~ Transport~ Transport~ Other tran~
    ## 10 SW 1.1.3.3    BSU_0~ nagZ        Cellular ~ Cell enve~ Cell wall~ Utilizatio~
    ## # ... with 196 more rows, and 1 more variable: category5 <chr>
…
``` r
d.spore <- 
d%>%
  filter(gene %in% setdiff(d.rs$gene, dspore$gene))%>%
  filter(!duplicated(gene))%>%
    arrange(gene)%>%
  bind_rows(.,dspore)%>%
  arrange(gene)
# sum(duplicated(d.spore$gene))# 0  
write_csv(d.spore, here("spor_gene_list/data","SWxWWxRS_sporulation_genes.csv"))
d.spore
```

    ## # A tibble: 880 x 8
    ##    `category id` gene   `locus tag` category1  category2   category3 category4  
    ##    <chr>         <chr>  <chr>       <chr>      <chr>       <chr>     <chr>      
    ##  1 SW 3.1.1      BSU_0~ dnaA        Informati~ Genetics    DNA repl~ <NA>       
    ##  2 SW 3.1.1      BSU_0~ dnaN        Informati~ Genetics    DNA repl~ <NA>       
    ##  3 SW 4.2.1.5    BSU_0~ yaaC        Lifestyles Sporulation Sporulat~ Newly iden~
    ##  4 SW 2.6.2.12   BSU_0~ pdxS        Metabolism Additional~ Biosynth~ Biosynthes~
    ##  5 SW 4.2.1.1.1  BSU_0~ yaaH        Lifestyles Sporulation Sporulat~ Spore coat~
    ##  6 SW 4.2.1.4    BSU_0~ bofA        Lifestyles Sporulation Sporulat~ Sporulatio~
    ##  7 SW 4.2.1.4    BSU_0~ csfB        Lifestyles Sporulation Sporulat~ Sporulatio~
    ##  8 SW 4.2.2      BSU_0~ yaaT        Lifestyles Sporulation phosphor~ <NA>       
    ##  9 SW 3.4.6      BSU_0~ abrB        Informati~ Regulation~ Transiti~ <NA>       
    ## 10 SW 3.3.1.2    BSU_0~ ksgA        Informati~ Protein sy~ Translat~ rRNA modif~
    ## # ... with 870 more rows, and 1 more variable: category5 <chr>
