…
currently 329 genes. I will look at the genes left out to see if any
should be kept.

Which genes occur only in the Dembek data set?

``` r
look <- d.dem %>% 
  filter(`Cd630 orthologue locus_tag` %in% intersections$DEM)

look
```

    ## # A tibble: 656 x 5
    ##    locus_tag   `function`                     logFC  q.value `Cd630 orthologue ~
    ##    <chr>       <chr>                          <dbl>    <dbl> <chr>              
    ##  1 CDR20291_0~ seryl-tRNA synthetase          -3.53 2.97e- 2 CD630_00140        
    ##  2 CDR20291_0~ putative cytosine/adenosine ~ -10.8  3.18e- 9 CD630_00150        
    ##  3 CDR20291_0~ recombination protein          -9.64 3.48e- 6 CD630_00180        
    ##  4 CDR20291_0~ putative membrane protein      -9.58 1.39e- 6 CD630_00290        
    ##  5 CDR20291_0~ AraC-family transcriptional ~  -2.82 1.31e-14 CD630_00310        
    ##  6 CDR20291_0~ acetoin:2,6-dichlorophenolin~  -7.55 4.01e-13 CD630_00360        
    ##  7 CDR20291_0~ E2 component of acetoin dehy~  -2.30 1.17e- 7 CD630_00380        
    ##  8 CDR20291_0~ E3 component of acetoin dehy~  -2.12 4.80e-15 CD630_00390        
    ##  9 CDR20291_0~ putative dual-specificity pr~  -2.68 1.38e-10 CD630_00500        
    ## 10 CDR20291_0~ RNA polymerase sigma-H factor  -9.89 1.73e-39 CD630_00570        
    ## # ... with 646 more rows
…
``` r
spor_genes <- c(spor_genes, look$`Cd630 orthologue locus_tag`)
```

Which genes occur only in the Fimlaid data set?

``` r
look <- d.fim %>% 
  filter(locus_tag %in% intersections$FIM)

look
```

    ## # A tibble: 66 x 3
    ##    Name   locus_tag   description                                               
    ##    <chr>  <chr>       <chr>                                                     
    ##  1 CD2373 CD630_23730 CstA-like carbon starvation protein                       
    ##  2 murG   CD630_26510 UDP-NAG-NAM-(pentapeptide) pyrophosphoryl-undecaprenol NA~
    ##  3 drm    CD630_12230 phosphopentomutase                                        
    ##  4 CD1824 CD630_18240 P-type calcium transport ATPase                           
    ##  5 CD1404 CD630_14040 oligopeptide transporter                                  
    ##  6 CD3290 CD630_32900 hypothetical protein                                      
    ##  7 CD0145 CD630_01450 S1 RNA-binding domain-containing protein                  
    ##  8 CD0622 CD630_06220 hypothetical protein (DUF1629)                            
    ##  9 CD1222 CD630_12220 integrase site-specific recombinase XerD-like             
    ## 10 prfB   CD630_01440 peptide chain release factor 2 (RF-2)                     
    ## # ... with 56 more rows
…
# sporulation genes with KO

``` r
spore_ko <- d.kegg.cdf %>% 
  filter (locus_tag %in% spor_genes) %>% 
  filter (! is.na(ko))

n.ko <- spore_ko$ko %>% unique() %>% length()
spore_ko
```

    ## # A tibble: 152 x 5
    ##    strain locus_tag   symbol  description                                  ko   
    ##    <chr>  <chr>       <chr>   <chr>                                        <chr>
    ##  1 cdf    CD630_00160 dnaX    " DNA polymerase III subunits gamma and tau" K023~
    ##  2 cdf    CD630_00170 <NA>    "DNA binding protein"                        K097~
    ##  3 cdf    CD630_00470 ispD    " 2-C-methyl-D-erythritol 4-phosphate cytid~ K009~
    ##  4 cdf    CD630_00480 ispF    " 2-C-methyl-D-erythritol 2,4-cyclodiphosph~ K017~
    ##  5 cdf    CD630_01060 cwlD    " Germination-specific N-acetylmuramoyl-L-a~ K014~
    ##  6 cdf    CD630_01190 glmM    " Phosphoglucosamine mutase"                 K034~
    ##  7 cdf    CD630_01200 glmS    " Glucosamine--fructose-6-phosphate aminotr~ K008~
    ##  8 cdf    CD630_01240 spoIID  " Stage II sporulation protein D"            K063~
    ##  9 cdf    CD630_01260 spoIIID " Stage III sporulation protein D"           K062~
    ## 10 cdf    CD630_02510 fliI    " ATP synthase subunit beta FliI"            K024~
    ## # ... with 142 more rows
…
