…
    ## `summarise()` has grouped output by 'ko'. You can override using the `.groups` argument.

``` r
genes_enriched %>% 
  filter(ko %in% shared.enriched) 
```

    ## # A tibble: 21 x 4
    ##    ko     symbol description                               sp   
    ##    <chr>  <chr>  <chr>                                     <chr>
    ##  1 K04769 spoVT  stage V sporulation protein T             bs   
    ##  2 K03091 sigH   RNA polymerase sigma-H factor             bs   
    ##  3 K01449 cwlJ   cell wall hydrolase CwlJ                  bs   
    ##  4 K06333 cotJB  spore coat protein CotJB                  bs   
    ##  5 K06334 cotJC  spore coat peptide assembly protein CotJC bs   
    ##  6 K08384 spoVD  stage V sporulation protein D             bs   
    ##  7 K03091 sigE   RNA polymerase sigma-E factor             bs   
    ##  8 K03091 sigG   RNA polymerase sigma-G factor             bs   
    ##  9 K01449 sleB   spore cortex-lytic enzyme                 bs   
    ## 10 K03091 sigF   RNA polymerase sigma-F factor             bs   
    ## # ... with 11 more rows
…
