…
    ## Rows: 41 Columns: 4

    ## -- Column specification --------------------------------------------------------
    ## Delimiter: ","
    ## chr (4): class, order, Family, Fraction.spore.forming

    ## 
    ## i Use `spec()` to retrieve the full column specification for this data.
    ## i Specify the column types or set `show_col_types = FALSE` to quiet this message.

``` r
d_galperin
```

    ## # A tibble: 41 x 4
    ##    class   order      Family                 Fraction.spore.forming
    ##    <chr>   <chr>      <chr>                  <chr>                 
    ##  1 Bacilli Bacillales Alicyclobacillaceae    +++                   
    ##  2 Bacilli Bacillales Bacillaceae            ++                    
    ##  3 Bacilli Bacillales Listeriaceae           -                     
    ##  4 Bacilli Bacillales Paenibacillaceae       +++                   
    ##  5 Bacilli Bacillales Pasteuriaceae          +++                   
    ##  6 Bacilli Bacillales Planococcaceae         +                     
    ##  7 Bacilli Bacillales Sporolactobacillaceae  ++                    
    ##  8 Bacilli Bacillales Staphylococcaceae      -                     
    ##  9 Bacilli Bacillales Thermoactinomycetaceae +++                   
    ## 10 Bacilli Bacillales Other                  +                     
    ## # ... with 31 more rows
…
